{
  "formatVersion": 1,
  "database": {
    "version": 3,
    "identityHash": "c0ff8d5b0ae7e35a37475424982ad8f4",
    "entities": [
      {
        "tableName": "collected_events",
        "createSql": "CREATE TABLE IF NOT EXISTS `${TABLE_NAME}` (`id` INTEGER PRIMARY KEY AUTOINCREMENT, `event_type` INTEGER NOT NULL, `event_dt` INTEGER NOT NULL, `package_name` TEXT)",
        "fields": [
          {
            "fieldPath": "id",
            "columnName": "id",
            "affinity": "INTEGER",
            "notNull": false
          },
          {
            "fieldPath": "eventType",
            "columnName": "event_type",
            "affinity": "INTEGER",
            "notNull": true
          },
          {
            "fieldPath": "eventDT",
            "columnName": "event_dt",
            "affinity": "INTEGER",
            "notNull": true
          },
          {
            "fieldPath": "packageName",
            "columnName": "package_name",
            "affinity": "TEXT",
            "notNull": false
          }
        ],
        "primaryKey": {
          "columnNames": [
            "id"
          ],
          "autoGenerate": true
        },
        "indices": [],
        "foreignKeys": []
      },
      {
        "tableName": "app_stats",
        "createSql": "CREATE TABLE IF NOT EXISTS `${TABLE_NAME}` (`id` INTEGER PRIMARY KEY AUTOINCREMENT, `package_name` TEXT NOT NULL, `usage` INTEGER NOT NULL, `launch_count` INTEGER NOT NULL, `stats_date` INTEGER NOT NULL)",
        "fields": [
          {
            "fieldPath": "id",
            "columnName": "id",
            "affinity": "INTEGER",
            "notNull": false
          },
          {
            "fieldPath": "packageName",
            "columnName": "package_name",
            "affinity": "TEXT",
            "notNull": true
          },
          {
            "fieldPath": "usage",
            "columnName": "usage",
            "affinity": "INTEGER",
            "notNull": true
          },
          {
            "fieldPath": "launchCount",
            "columnName": "launch_count",
            "affinity": "INTEGER",
            "notNull": true
          },
          {
            "fieldPath": "statsDate",
            "columnName": "stats_date",
            "affinity": "INTEGER",
            "notNull": true
          }
        ],
        "primaryKey": {
          "columnNames": [
            "id"
          ],
          "autoGenerate": true
        },
        "indices": [],
        "foreignKeys": []
      },
      {
        "tableName": "network_stats",
        "createSql": "CREATE TABLE IF NOT EXISTS `${TABLE_NAME}` (`id` INTEGER PRIMARY KEY AUTOINCREMENT, `package_name` TEXT NOT NULL, `bytes_mobile_t` INTEGER NOT NULL, `bytes_wifi_t` INTEGER NOT NULL, `bytes_mobile_r` INTEGER NOT NULL, `bytes_wifi_r` INTEGER NOT NULL, `stats_date` INTEGER NOT NULL)",
        "fields": [
          {
            "fieldPath": "id",
            "columnName": "id",
            "affinity": "INTEGER",
            "notNull": false
          },
          {
            "fieldPath": "packageName",
            "columnName": "package_name",
            "affinity": "TEXT",
            "notNull": true
          },
          {
            "fieldPath": "bytesMobileTx",
            "columnName": "bytes_mobile_t",
            "affinity": "INTEGER",
            "notNull": true
          },
          {
            "fieldPath": "bytesWifiTx",
            "columnName": "bytes_wifi_t",
            "affinity": "INTEGER",
            "notNull": true
          },
          {
            "fieldPath": "bytesMobileRx",
            "columnName": "bytes_mobile_r",
            "affinity": "INTEGER",
            "notNull": true
          },
          {
            "fieldPath": "bytesWifiRx",
            "columnName": "bytes_wifi_r",
            "affinity": "INTEGER",
            "notNull": true
          },
          {
            "fieldPath": "statsDate",
            "columnName": "stats_date",
            "affinity": "INTEGER",
            "notNull": true
          }
        ],
        "primaryKey": {
          "columnNames": [
            "id"
          ],
          "autoGenerate": true
        },
        "indices": [],
        "foreignKeys": []
      }
    ],
    "views": [],
    "setupQueries": [
      "CREATE TABLE IF NOT EXISTS room_master_table (id INTEGER PRIMARY KEY,identity_hash TEXT)",
      "INSERT OR REPLACE INTO room_master_table (id,identity_hash) VALUES(42, 'c0ff8d5b0ae7e35a37475424982ad8f4')"
    ]
  }
}